{
  "file_generated_by": "FlutterFire CLI",
  "purpose": "FirebaseAppID & ProjectID for this Firebase app in this directory",
  "GOOGLE_APP_ID": "1:742435321883:ios:957ec2b036a14a78b820be",
  "FIREBASE_PROJECT_ID": "mtn-flut",
  "GCM_SENDER_ID": "742435321883"
}